#
#  tetrahedron.obj
#  
#  Created by Donald House on 2/21/11.
#  Copyright 2011 Clemson University. All rights reserved.
#

mtllib tetrahedron.mtl

v -1 -1 1
v 1.0 -1.0 1.0
v 0 1 0
v 0 -1 -1

vt 0 0
vt 1 0
vt 0.5 1
vt 0.5 0

vn -0.57734 -0.57734 0.57734
vn 0.57734 -0.57734 0.57734
vn 0 1 0
vn 0 -0.7071 -0.7071

g front
usemtl green_flag
f 1 2 3

g sides
f 2 4 3
f 1 3 4
f 1 4 2

l 1 2 3 4 1 3
l 2 4
